%YAML 1.1
%TAG !u! tag:unity3d.com,2011:
--- !u!1045 &1
EditorBuildSettings:
  m_ObjectHideFlags: 0
  serializedVersion: 2
  m_Scenes:
  - enabled: 1
    path: Assets/Scenes/scene2-Menu.unity
    guid: 2cda990e2423bbf4892e6590ba056729
  - enabled: 1
    path: Assets/Scenes/scene3-Game.unity
    guid: ee8d371dd27b0df409e73ab2d2833644
  - enabled: 1
    path: Assets/Scenes/scene4-Loose.unity
    guid: 94a97e381fc6b18438fc660501ad0727
  m_configObjects: {}
